EESchema Schematic File Version 4
LIBS:pqws-atmo-hw-cache
EELAYER 26 0
EELAYER END
$Descr A4 11693 8268
encoding utf-8
Sheet 2 8
Title "PQ9ISH Sensor Module"
Date "2018-04-30"
Rev ""
Comp "Libre Space Foundation"
Comment1 ""
Comment2 ""
Comment3 ""
Comment4 ""
$EndDescr
$Comp
L lsd-kicad:PQ9-Connector PQ9
U 1 1 5A2897BB
P 8350 5100
F 0 "PQ9" H 8350 5600 50  0000 C CNN
F 1 "PQ9-Connector" V 8650 5100 50  0000 C CNN
F 2 "lsf-kicad-lib:PQ9" H 8350 5100 50  0001 C CNN
F 3 "" H 8350 5100 50  0001 C CNN
	1    8350 5100
	1    0    0    -1  
$EndComp
Text HLabel 8100 4700 0    60   Input ~ 0
RST
$Comp
L power:GND #PWR05
U 1 1 5A289804
P 7700 5100
F 0 "#PWR05" H 7700 4850 50  0001 C CNN
F 1 "GND" H 7700 4950 50  0000 C CNN
F 2 "" H 7700 5100 50  0001 C CNN
F 3 "" H 7700 5100 50  0001 C CNN
	1    7700 5100
	1    0    0    -1  
$EndComp
Text HLabel 5100 2500 0    60   Input ~ 0
CAN1TX
Text HLabel 5100 2600 0    60   Input ~ 0
CAN1RX
$Comp
L power:GND #PWR03
U 1 1 5A7B673E
P 6550 3100
F 0 "#PWR03" H 6550 2850 50  0001 C CNN
F 1 "GND" H 6550 2950 50  0000 C CNN
F 2 "" H 6550 3100 50  0001 C CNN
F 3 "" H 6550 3100 50  0001 C CNN
	1    6550 3100
	1    0    0    -1  
$EndComp
$Comp
L Diode:BAR42FILM D1
U 1 1 5A7BB63E
P 6300 4000
F 0 "D1" H 6300 4100 50  0000 C CNN
F 1 "BAR42FILM" H 6300 3900 50  0000 C CNN
F 2 "Package_TO_SOT_SMD:SOT-23" H 6300 4000 50  0001 C CNN
F 3 "" H 6300 4000 50  0001 C CNN
F 4 "BAR42FILM" H 0   0   50  0001 C CNN "Part Number"
	1    6300 4000
	1    0    0    -1  
$EndComp
$Comp
L Device:R R1
U 1 1 5A7BB786
P 5000 3100
F 0 "R1" V 5080 3100 50  0000 C CNN
F 1 "1K" V 5000 3100 50  0000 C CNN
F 2 "Resistor_SMD:R_0603_1608Metric_Pad0.99x1.00mm_HandSolder" V 4930 3100 50  0001 C CNN
F 3 "" H 5000 3100 50  0001 C CNN
	1    5000 3100
	1    0    0    -1  
$EndComp
$Comp
L power:GND #PWR01
U 1 1 5A7BB85E
P 5000 3400
F 0 "#PWR01" H 5000 3150 50  0001 C CNN
F 1 "GND" H 5000 3250 50  0000 C CNN
F 2 "" H 5000 3400 50  0001 C CNN
F 3 "" H 5000 3400 50  0001 C CNN
	1    5000 3400
	1    0    0    -1  
$EndComp
Text HLabel 4700 2900 0    60   Input ~ 0
CanEn
$Comp
L Device:R R2
U 1 1 5A7BE651
P 7100 4100
F 0 "R2" V 7180 4100 50  0000 C CNN
F 1 "3K3" V 7100 4100 50  0000 C CNN
F 2 "Resistor_SMD:R_0603_1608Metric_Pad0.99x1.00mm_HandSolder" V 7030 4100 50  0001 C CNN
F 3 "" H 7100 4100 50  0001 C CNN
	1    7100 4100
	1    0    0    -1  
$EndComp
Text Notes 6650 3400 0    60   ~ 0
Driverless CAN
Wire Wire Line
	8150 5000 7700 5000
Wire Wire Line
	7700 5000 7700 5100
Wire Wire Line
	7050 2600 7800 2600
Wire Wire Line
	7800 2600 7800 3900
Wire Wire Line
	7050 2800 7500 2800
Wire Wire Line
	7500 2800 7500 3900
Connection ~ 7500 4900
Wire Wire Line
	5100 2500 5850 2500
Wire Wire Line
	5100 2600 5400 2600
Wire Wire Line
	6550 2200 6550 2300
Wire Wire Line
	6450 4000 6800 4000
Wire Wire Line
	6800 4000 6800 4150
Wire Wire Line
	6150 4000 5850 4000
Connection ~ 5850 2500
Wire Wire Line
	5400 4150 6800 4150
Connection ~ 6800 4150
Connection ~ 5400 2600
Wire Wire Line
	5400 2600 5400 3350
Wire Wire Line
	5400 3950 5400 4150
Wire Wire Line
	5850 4000 5850 3950
Wire Wire Line
	7100 4250 7100 4900
Connection ~ 7100 4900
Wire Wire Line
	7100 3800 7100 3950
Wire Notes Line
	5300 3400 7300 3400
Wire Notes Line
	7300 4350 5300 4350
Wire Notes Line
	5300 4350 5300 3400
Wire Notes Line
	7300 3400 7300 4350
Wire Wire Line
	6800 4900 7100 4900
Text Label 7850 5200 0    60   ~ 0
VCC
$Comp
L power:GND #PWR06
U 1 1 5A84FC99
P 7950 5500
F 0 "#PWR06" H 7950 5250 50  0001 C CNN
F 1 "GND" H 7950 5350 50  0000 C CNN
F 2 "" H 7950 5500 50  0001 C CNN
F 3 "" H 7950 5500 50  0001 C CNN
	1    7950 5500
	1    0    0    -1  
$EndComp
Wire Wire Line
	7950 5500 8150 5500
Wire Wire Line
	7500 4900 8150 4900
Wire Wire Line
	5850 2500 6050 2500
Wire Wire Line
	6800 4150 6800 4900
Wire Wire Line
	5400 2600 6050 2600
Wire Wire Line
	7100 4900 7500 4900
Wire Wire Line
	8100 4700 8150 4700
NoConn ~ 8150 5300
NoConn ~ 8150 5400
Wire Wire Line
	7800 4800 8150 4800
Text Label 7900 4900 0    50   ~ 0
D+
Text Label 7900 4800 0    50   ~ 0
D-
$Comp
L Interface_CAN_LIN:LTC2875-S8 U1
U 1 1 5A960484
P 6550 2700
F 0 "U1" H 6350 3100 50  0000 C CNN
F 1 "LTC2875-S8" H 6850 3100 50  0000 C CNN
F 2 "Package_SO:SOIC-8_3.9x4.9mm_P1.27mm" H 6550 2200 50  0001 C CIN
F 3 "http://cds.linear.com/docs/en/datasheet/2875f.pdf" H 6550 2700 50  0001 C CNN
F 4 "LTC2875IS8#PBF" H 0   0   50  0001 C CNN "Part Number"
	1    6550 2700
	1    0    0    -1  
$EndComp
NoConn ~ 7050 2700
Wire Wire Line
	4700 2900 5000 2900
Wire Wire Line
	5000 3250 5000 3400
Wire Wire Line
	5000 2900 5000 2950
Connection ~ 5000 2900
Wire Wire Line
	5000 2900 6050 2900
$Comp
L Device:R R3
U 1 1 5A96C4BC
P 7650 3900
F 0 "R3" V 7550 3900 50  0000 C CNN
F 1 "120" V 7650 3900 50  0000 C CNN
F 2 "Resistor_SMD:R_0603_1608Metric_Pad0.99x1.00mm_HandSolder" V 7580 3900 50  0001 C CNN
F 3 "~" H 7650 3900 50  0001 C CNN
	1    7650 3900
	0    1    1    0   
$EndComp
Connection ~ 7800 3900
Wire Wire Line
	7800 3900 7800 4800
Connection ~ 7500 3900
Wire Wire Line
	7500 3900 7500 4900
$Comp
L Device:Jumper JP2
U 1 1 5AE786DB
P 5850 3650
F 0 "JP2" V 5804 3777 50  0000 L CNN
F 1 "Jumper" V 5895 3777 50  0000 L CNN
F 2 "Jumper:SolderJumper-2_P1.3mm_Open_TrianglePad1.0x1.5mm" H 5850 3650 50  0001 C CNN
F 3 "~" H 5850 3650 50  0001 C CNN
	1    5850 3650
	0    1    1    0   
$EndComp
Wire Wire Line
	5850 3350 5850 2500
$Comp
L Device:Jumper JP1
U 1 1 5AE79E71
P 5400 3650
F 0 "JP1" V 5354 3777 50  0000 L CNN
F 1 "Jumper" V 5445 3777 50  0000 L CNN
F 2 "Jumper:SolderJumper-2_P1.3mm_Open_TrianglePad1.0x1.5mm" H 5400 3650 50  0001 C CNN
F 3 "~" H 5400 3650 50  0001 C CNN
	1    5400 3650
	0    1    1    0   
$EndComp
$Comp
L power:+3.3V #PWR02
U 1 1 5AEA0057
P 6550 2200
F 0 "#PWR02" H 6550 2050 50  0001 C CNN
F 1 "+3.3V" H 6565 2373 50  0000 C CNN
F 2 "" H 6550 2200 50  0001 C CNN
F 3 "" H 6550 2200 50  0001 C CNN
	1    6550 2200
	1    0    0    -1  
$EndComp
$Comp
L power:+3.3V #PWR0107
U 1 1 5AEACA60
P 7100 3800
F 0 "#PWR0107" H 7100 3650 50  0001 C CNN
F 1 "+3.3V" H 7115 3973 50  0000 C CNN
F 2 "" H 7100 3800 50  0001 C CNN
F 3 "" H 7100 3800 50  0001 C CNN
	1    7100 3800
	1    0    0    -1  
$EndComp
Wire Wire Line
	8150 5200 7850 5200
NoConn ~ 8150 5100
$EndSCHEMATC
