EESchema Schematic File Version 4
LIBS:pqws-atmo-hw-cache
EELAYER 26 0
EELAYER END
$Descr A4 11693 8268
encoding utf-8
Sheet 1 8
Title "PQ9ISH Sensor Module"
Date "2018-04-30"
Rev ""
Comp "Libre Space Foundation"
Comment1 ""
Comment2 ""
Comment3 ""
Comment4 ""
$EndDescr
$Sheet
S 6700 1900 900  1100
U 5AE76C56
F0 "PQ Bus" 50
F1 "PQ_Bus.sch" 50
F2 "RST" I L 6700 2050 50 
F3 "CAN1TX" I L 6700 2300 50 
F4 "CAN1RX" I L 6700 2400 50 
F5 "CanEn" I L 6700 2500 50 
$EndSheet
$Sheet
S 5100 1900 1250 3500
U 5AE772DD
F0 "MCU" 50
F1 "MCU.sch" 50
F2 "PQ_RESET" I R 6350 2050 50 
F3 "CAN_Tx" I R 6350 2300 50 
F4 "CAN_Rx" I R 6350 2400 50 
F5 "CAN_EN" I R 6350 2500 50 
F6 "I2C1_SDA" I R 6350 3650 50 
F7 "I2C1_SCL" I R 6350 3750 50 
F8 "SENS1_V_PWM" I L 5100 2050 50 
F9 "SENS1_IO1" I L 5100 2200 50 
F10 "SENS1_IO2" I L 5100 2300 50 
F11 "SENS3_V" I L 5100 3300 50 
F12 "SENS3_IO1" I L 5100 3450 50 
F13 "SENS3_IO2" I L 5100 3550 50 
F14 "SENS2_V_PWM" I L 5100 2650 50 
F15 "SENS2_IO1" I L 5100 2800 50 
F16 "SENS2_IO2" I L 5100 2900 50 
F17 "SENS4_V" I L 5100 3950 50 
F18 "SENS4_IO1" I L 5100 4100 50 
F19 "SENS4_IO2" I L 5100 4200 50 
F20 "RS232_TX" I R 6350 4750 50 
F21 "RS232_RX" I R 6350 4850 50 
F22 "SWDIO" I L 5100 4800 50 
F23 "SWCLK" I L 5100 5000 50 
F24 "NRST" I L 5100 4700 50 
$EndSheet
$Sheet
S 4050 2000 550  400 
U 5AE772E0
F0 "SensorConn1" 50
F1 "SensorConn.sch" 50
F2 "S_PinA" I R 4600 2200 50 
F3 "S_PinB" I R 4600 2300 50 
F4 "S_Power" I R 4600 2050 50 
$EndSheet
$Sheet
S 4050 2600 550  400 
U 5AE77977
F0 "sheet5AE77977" 50
F1 "SensorConn.sch" 50
F2 "S_PinA" I R 4600 2800 50 
F3 "S_PinB" I R 4600 2900 50 
F4 "S_Power" I R 4600 2650 50 
$EndSheet
Wire Wire Line
	6350 2050 6700 2050
Wire Wire Line
	6350 2300 6700 2300
Wire Wire Line
	6350 2400 6700 2400
Wire Wire Line
	6350 2500 6700 2500
Wire Wire Line
	4600 2050 5100 2050
Wire Wire Line
	5100 2200 4600 2200
Wire Wire Line
	4600 2300 5100 2300
Wire Wire Line
	5100 2650 4600 2650
Wire Wire Line
	4600 2800 5100 2800
Wire Wire Line
	5100 2900 4600 2900
$Sheet
S 4050 3250 550  400 
U 5AE9F968
F0 "sheet5AE9F968" 50
F1 "SensorConn.sch" 50
F2 "S_PinA" I R 4600 3450 50 
F3 "S_PinB" I R 4600 3550 50 
F4 "S_Power" I R 4600 3300 50 
$EndSheet
Wire Wire Line
	4600 3300 5100 3300
Wire Wire Line
	5100 3450 4600 3450
Wire Wire Line
	4600 3550 5100 3550
$Sheet
S 4050 3900 550  400 
U 5AEA0DE2
F0 "sheet5AEA0DE2" 50
F1 "SensorConn.sch" 50
F2 "S_PinA" I R 4600 4100 50 
F3 "S_PinB" I R 4600 4200 50 
F4 "S_Power" I R 4600 3950 50 
$EndSheet
Wire Wire Line
	4600 3950 5100 3950
Wire Wire Line
	5100 4100 4600 4100
Wire Wire Line
	4600 4200 5100 4200
$Comp
L pq-atmo-connectors:PQ-I2C J5
U 1 1 5AEA1D19
P 6900 3650
F 0 "J5" H 7150 3650 50  0000 L CNN
F 1 "I2C" H 7150 3550 50  0000 L CNN
F 2 "Connector_JST:JST_PH_B4B-PH-K_1x04_P2.00mm_Vertical" H 6900 3650 50  0001 C CNN
F 3 "~" H 6900 3650 50  0001 C CNN
	1    6900 3650
	1    0    0    -1  
$EndComp
$Comp
L power:+3.3V #PWR017
U 1 1 5AEA1D6C
P 6700 3450
F 0 "#PWR017" H 6700 3300 50  0001 C CNN
F 1 "+3.3V" H 6715 3623 50  0000 C CNN
F 2 "" H 6700 3450 50  0001 C CNN
F 3 "" H 6700 3450 50  0001 C CNN
	1    6700 3450
	1    0    0    -1  
$EndComp
$Comp
L power:GND #PWR018
U 1 1 5AEA1DC2
P 6700 3950
F 0 "#PWR018" H 6700 3700 50  0001 C CNN
F 1 "GND" H 6705 3777 50  0000 C CNN
F 2 "" H 6700 3950 50  0001 C CNN
F 3 "" H 6700 3950 50  0001 C CNN
	1    6700 3950
	1    0    0    -1  
$EndComp
Wire Wire Line
	6700 3950 6700 3850
Wire Wire Line
	6700 3550 6700 3450
Wire Wire Line
	6700 3650 6350 3650
Wire Wire Line
	6350 3750 6700 3750
$Comp
L pq-atmo-connectors:PQ-RS232 J6
U 1 1 5AEA2BE8
P 6900 4750
F 0 "J6" H 7150 4750 50  0000 L CNN
F 1 "RS232" H 7150 4650 50  0000 L CNN
F 2 "Connector_JST:JST_PH_B4B-PH-K_1x04_P2.00mm_Vertical" H 6900 4750 50  0001 C CNN
F 3 "~" H 6900 4750 50  0001 C CNN
	1    6900 4750
	1    0    0    -1  
$EndComp
$Comp
L power:+3.3V #PWR019
U 1 1 5AEA2BEE
P 6700 4550
F 0 "#PWR019" H 6700 4400 50  0001 C CNN
F 1 "+3.3V" H 6715 4723 50  0000 C CNN
F 2 "" H 6700 4550 50  0001 C CNN
F 3 "" H 6700 4550 50  0001 C CNN
	1    6700 4550
	1    0    0    -1  
$EndComp
$Comp
L power:GND #PWR020
U 1 1 5AEA2BF4
P 6700 5050
F 0 "#PWR020" H 6700 4800 50  0001 C CNN
F 1 "GND" H 6705 4877 50  0000 C CNN
F 2 "" H 6700 5050 50  0001 C CNN
F 3 "" H 6700 5050 50  0001 C CNN
	1    6700 5050
	1    0    0    -1  
$EndComp
Wire Wire Line
	6700 5050 6700 4950
Wire Wire Line
	6700 4650 6700 4550
Wire Wire Line
	6700 4750 6350 4750
Wire Wire Line
	6350 4850 6700 4850
$Comp
L Connector_Generic:Conn_01x04 J7
U 1 1 5AEB57A8
P 4500 4900
F 0 "J7" H 4650 4800 50  0000 C CNN
F 1 "SWD" H 4650 4900 50  0000 C CNN
F 2 "Connector_JST:JST_SH_SM04B-SRSS-TB_1x04-1MP_P1.00mm_Horizontal" H 4500 4900 50  0001 C CNN
F 3 "~" H 4500 4900 50  0001 C CNN
	1    4500 4900
	-1   0    0    1   
$EndComp
$Comp
L power:GND #PWR04
U 1 1 5AEB5965
P 4800 4900
F 0 "#PWR04" H 4800 4650 50  0001 C CNN
F 1 "GND" V 4805 4772 50  0000 R CNN
F 2 "" H 4800 4900 50  0001 C CNN
F 3 "" H 4800 4900 50  0001 C CNN
	1    4800 4900
	0    -1   -1   0   
$EndComp
Wire Wire Line
	4800 4900 4700 4900
Wire Wire Line
	4700 4700 5100 4700
Wire Wire Line
	5100 4800 4700 4800
Wire Wire Line
	4700 5000 5100 5000
$Sheet
S 7900 1900 850  1100
U 5AEBEABD
F0 "PSU" 50
F1 "PSU.sch" 50
$EndSheet
$EndSCHEMATC
