EESchema Schematic File Version 4
LIBS:pqws-atmo-hw-cache
EELAYER 26 0
EELAYER END
$Descr A4 11693 8268
encoding utf-8
Sheet 8 8
Title ""
Date ""
Rev ""
Comp ""
Comment1 ""
Comment2 ""
Comment3 ""
Comment4 ""
$EndDescr
$Comp
L lsd-kicad:TPS63070RNM U3
U 1 1 5AEBA648
P 3500 2550
F 0 "U3" H 3500 3217 50  0000 C CNN
F 1 "TPS63070RNM" H 3500 3126 50  0000 C CNN
F 2 "lsf-kicad-lib:VQFN-15_2.5x3_Pitch0.5mm" H 3500 2550 50  0001 C CNN
F 3 "http://www.ti.com/lit/ds/symlink/tps63070.pdf" H 3500 2550 50  0001 C CNN
	1    3500 2550
	1    0    0    -1  
$EndComp
$Comp
L Device:L_Core_Ferrite L1
U 1 1 5AEDF1CF
P 3500 1750
F 0 "L1" V 3725 1750 50  0000 C CNN
F 1 "1.4uH" V 3634 1750 50  0000 C CNN
F 2 "Inductor_SMD:L_Coilcraft_XxL4020" H 3500 1750 50  0001 C CNN
F 3 "~" H 3500 1750 50  0001 C CNN
F 4 "XFL4020-152MEB" V 3500 1750 50  0001 C CNN "Part Number"
	1    3500 1750
	0    -1   -1   0   
$EndComp
Wire Wire Line
	3650 1750 3900 1750
Wire Wire Line
	3900 1750 3900 2150
Wire Wire Line
	3350 1750 3100 1750
Wire Wire Line
	3100 1750 3100 2150
Text GLabel 1900 2250 0    50   Input ~ 0
V_In
Wire Wire Line
	3100 2250 3050 2250
Wire Wire Line
	3100 2350 3050 2350
Wire Wire Line
	3050 2350 3050 2250
Connection ~ 3050 2250
Wire Wire Line
	3050 2250 2050 2250
$Comp
L Device:R R9
U 1 1 5AEDF4B6
P 2250 2500
F 0 "R9" V 2043 2500 50  0000 C CNN
F 1 "10K" V 2134 2500 50  0000 C CNN
F 2 "Resistor_SMD:R_0603_1608Metric_Pad0.99x1.00mm_HandSolder" V 2180 2500 50  0001 C CNN
F 3 "~" H 2250 2500 50  0001 C CNN
	1    2250 2500
	0    1    1    0   
$EndComp
Wire Wire Line
	2400 2500 3100 2500
$Comp
L Device:C C9
U 1 1 5AEDF595
P 2050 2750
F 0 "C9" H 2165 2796 50  0000 L CNN
F 1 "33uF" H 2165 2705 50  0000 L CNN
F 2 "Capacitor_SMD:C_1206_3216Metric_Pad1.39x1.80mm_HandSolder" H 2088 2600 50  0001 C CNN
F 3 "~" H 2050 2750 50  0001 C CNN
F 4 "C3216X5R1E336M160AC" H 2050 2750 50  0001 C CNN "Part Number"
	1    2050 2750
	1    0    0    -1  
$EndComp
Wire Wire Line
	2050 2250 2050 2500
Connection ~ 2050 2250
Wire Wire Line
	2050 2250 1900 2250
Wire Wire Line
	2100 2500 2050 2500
Connection ~ 2050 2500
Wire Wire Line
	2050 2500 2050 2600
$Comp
L power:GND #PWR027
U 1 1 5AEDFAFE
P 2050 2950
F 0 "#PWR027" H 2050 2700 50  0001 C CNN
F 1 "GND" H 2055 2777 50  0000 C CNN
F 2 "" H 2050 2950 50  0001 C CNN
F 3 "" H 2050 2950 50  0001 C CNN
	1    2050 2950
	1    0    0    -1  
$EndComp
$Comp
L power:GND #PWR030
U 1 1 5AEDFB18
P 3500 3250
F 0 "#PWR030" H 3500 3000 50  0001 C CNN
F 1 "GND" H 3505 3077 50  0000 C CNN
F 2 "" H 3500 3250 50  0001 C CNN
F 3 "" H 3500 3250 50  0001 C CNN
	1    3500 3250
	1    0    0    -1  
$EndComp
$Comp
L Device:C C10
U 1 1 5AEDFBC2
P 2500 2750
F 0 "C10" H 2615 2796 50  0000 L CNN
F 1 "100nF" H 2615 2705 50  0000 L CNN
F 2 "Capacitor_SMD:C_0603_1608Metric_Pad0.99x1.00mm_HandSolder" H 2538 2600 50  0001 C CNN
F 3 "~" H 2500 2750 50  0001 C CNN
F 4 "C3216X5R1E336M160AC" H 2500 2750 50  0001 C CNN "Part Number"
	1    2500 2750
	1    0    0    -1  
$EndComp
Wire Wire Line
	2050 2900 2050 2950
Wire Wire Line
	2500 2600 3100 2600
Wire Wire Line
	3100 2750 3050 2750
Wire Wire Line
	3050 2750 3050 2350
Connection ~ 3050 2350
$Comp
L power:GND #PWR028
U 1 1 5AEE0F73
P 2500 2950
F 0 "#PWR028" H 2500 2700 50  0001 C CNN
F 1 "GND" H 2505 2777 50  0000 C CNN
F 2 "" H 2500 2950 50  0001 C CNN
F 3 "" H 2500 2950 50  0001 C CNN
	1    2500 2950
	1    0    0    -1  
$EndComp
Wire Wire Line
	2500 2900 2500 2950
Wire Wire Line
	3500 3150 3500 3250
Wire Wire Line
	3600 3150 3600 3250
Wire Wire Line
	3600 3250 3500 3250
Connection ~ 3500 3250
Wire Wire Line
	3000 2850 3000 2950
Wire Wire Line
	3000 2850 3100 2850
$Comp
L power:GND #PWR029
U 1 1 5AEE20D5
P 3000 2950
F 0 "#PWR029" H 3000 2700 50  0001 C CNN
F 1 "GND" H 3005 2777 50  0000 C CNN
F 2 "" H 3000 2950 50  0001 C CNN
F 3 "" H 3000 2950 50  0001 C CNN
	1    3000 2950
	1    0    0    -1  
$EndComp
Text GLabel 5500 2250 2    50   Input ~ 0
3.3V
$Comp
L power:GND #PWR031
U 1 1 5AEE28FF
P 4000 2650
F 0 "#PWR031" H 4000 2400 50  0001 C CNN
F 1 "GND" H 4005 2477 50  0000 C CNN
F 2 "" H 4000 2650 50  0001 C CNN
F 3 "" H 4000 2650 50  0001 C CNN
	1    4000 2650
	1    0    0    -1  
$EndComp
Wire Wire Line
	3900 2650 4000 2650
$Comp
L Device:R R12
U 1 1 5AEE2BFB
P 4500 2750
F 0 "R12" H 4430 2704 50  0000 R CNN
F 1 "102K" H 4430 2795 50  0000 R CNN
F 2 "Resistor_SMD:R_0603_1608Metric_Pad0.99x1.00mm_HandSolder" V 4430 2750 50  0001 C CNN
F 3 "~" H 4500 2750 50  0001 C CNN
	1    4500 2750
	-1   0    0    1   
$EndComp
$Comp
L Device:R R10
U 1 1 5AEE2CF8
P 4150 2400
F 0 "R10" H 4080 2354 50  0000 R CNN
F 1 "309K" H 4080 2445 50  0000 R CNN
F 2 "Resistor_SMD:R_0603_1608Metric_Pad0.99x1.00mm_HandSolder" V 4080 2400 50  0001 C CNN
F 3 "~" H 4150 2400 50  0001 C CNN
	1    4150 2400
	-1   0    0    1   
$EndComp
$Comp
L Device:R R11
U 1 1 5AEE2D2C
P 4150 2750
F 0 "R11" H 4080 2704 50  0000 R CNN
F 1 "100K" H 4080 2795 50  0000 R CNN
F 2 "Resistor_SMD:R_0603_1608Metric_Pad0.99x1.00mm_HandSolder" V 4080 2750 50  0001 C CNN
F 3 "~" H 4150 2750 50  0001 C CNN
	1    4150 2750
	-1   0    0    1   
$EndComp
Wire Wire Line
	3900 2350 3950 2350
Wire Wire Line
	3950 2350 3950 2250
Connection ~ 3950 2250
Wire Wire Line
	3950 2250 3900 2250
Wire Wire Line
	4150 2550 4150 2600
Wire Wire Line
	3900 2550 4150 2550
Wire Wire Line
	3950 2250 4150 2250
Connection ~ 4150 2250
Connection ~ 4150 2550
Wire Wire Line
	4150 2250 4500 2250
Wire Wire Line
	3900 2850 3900 3200
Wire Wire Line
	3900 3200 4500 3200
Wire Wire Line
	4500 3200 4500 2900
Wire Wire Line
	4500 2600 4500 2250
Connection ~ 4500 2250
Wire Wire Line
	4500 2250 4900 2250
$Comp
L power:GND #PWR032
U 1 1 5AEE7C18
P 4150 2950
F 0 "#PWR032" H 4150 2700 50  0001 C CNN
F 1 "GND" H 4155 2777 50  0000 C CNN
F 2 "" H 4150 2950 50  0001 C CNN
F 3 "" H 4150 2950 50  0001 C CNN
	1    4150 2950
	1    0    0    -1  
$EndComp
Wire Wire Line
	4150 2900 4150 2950
$Comp
L Device:C C11
U 1 1 5AEE9E88
P 4900 2700
F 0 "C11" H 5015 2746 50  0000 L CNN
F 1 "10uF" H 5015 2655 50  0000 L CNN
F 2 "Capacitor_SMD:C_0603_1608Metric_Pad0.99x1.00mm_HandSolder" H 4938 2550 50  0001 C CNN
F 3 "~" H 4900 2700 50  0001 C CNN
F 4 "GRM188R60J106ME47D" H 4900 2700 50  0001 C CNN "Part Number"
	1    4900 2700
	1    0    0    -1  
$EndComp
$Comp
L Device:C C12
U 1 1 5AEE9EF0
P 5300 2700
F 0 "C12" H 5415 2746 50  0000 L CNN
F 1 "47uF" H 5415 2655 50  0000 L CNN
F 2 "Capacitor_SMD:C_1206_3216Metric_Pad1.39x1.80mm_HandSolder" H 5338 2550 50  0001 C CNN
F 3 "~" H 5300 2700 50  0001 C CNN
F 4 "GRM31CC80J476KE18L" H 5300 2700 50  0001 C CNN "Part Number"
	1    5300 2700
	1    0    0    -1  
$EndComp
$Comp
L power:GND #PWR033
U 1 1 5AEEA06F
P 4900 2950
F 0 "#PWR033" H 4900 2700 50  0001 C CNN
F 1 "GND" H 4905 2777 50  0000 C CNN
F 2 "" H 4900 2950 50  0001 C CNN
F 3 "" H 4900 2950 50  0001 C CNN
	1    4900 2950
	1    0    0    -1  
$EndComp
$Comp
L power:GND #PWR034
U 1 1 5AEEA08E
P 5300 2950
F 0 "#PWR034" H 5300 2700 50  0001 C CNN
F 1 "GND" H 5305 2777 50  0000 C CNN
F 2 "" H 5300 2950 50  0001 C CNN
F 3 "" H 5300 2950 50  0001 C CNN
	1    5300 2950
	1    0    0    -1  
$EndComp
Wire Wire Line
	4900 2850 4900 2950
Wire Wire Line
	5300 2950 5300 2850
Wire Wire Line
	5300 2550 5300 2250
Connection ~ 5300 2250
Wire Wire Line
	5300 2250 5500 2250
Wire Wire Line
	4900 2550 4900 2250
Connection ~ 4900 2250
Wire Wire Line
	4900 2250 5300 2250
Text Notes 2050 1950 0    50   ~ 0
VinMin = 3.0V\nVinMax = 9.0V\nVout = 3.3V\nIout = 1.0A
Wire Notes Line
	1600 1400 1600 3550
Wire Notes Line
	1600 3550 5750 3550
Wire Notes Line
	5750 3550 5750 1400
Wire Notes Line
	5750 1400 1600 1400
$Comp
L lsd-kicad:TPS63070RNM U4
U 1 1 5AEEC713
P 3500 5950
F 0 "U4" H 3500 6617 50  0000 C CNN
F 1 "TPS63070RNM" H 3500 6526 50  0000 C CNN
F 2 "lsf-kicad-lib:VQFN-15_2.5x3_Pitch0.5mm" H 3500 5950 50  0001 C CNN
F 3 "http://www.ti.com/lit/ds/symlink/tps63070.pdf" H 3500 5950 50  0001 C CNN
	1    3500 5950
	1    0    0    -1  
$EndComp
$Comp
L Device:L_Core_Ferrite L2
U 1 1 5AEEC71A
P 3500 5150
F 0 "L2" V 3725 5150 50  0000 C CNN
F 1 "1.5uH" V 3634 5150 50  0000 C CNN
F 2 "Inductor_SMD:L_Coilcraft_XxL4020" H 3500 5150 50  0001 C CNN
F 3 "~" H 3500 5150 50  0001 C CNN
F 4 "XFL4020-152MEB" V 3500 5150 50  0001 C CNN "Part Number"
	1    3500 5150
	0    -1   -1   0   
$EndComp
Wire Wire Line
	3650 5150 3900 5150
Wire Wire Line
	3900 5150 3900 5550
Wire Wire Line
	3350 5150 3100 5150
Wire Wire Line
	3100 5150 3100 5550
Text GLabel 1900 5650 0    50   Input ~ 0
V_In
Wire Wire Line
	3100 5650 3050 5650
Wire Wire Line
	3100 5750 3050 5750
Wire Wire Line
	3050 5750 3050 5650
Connection ~ 3050 5650
Wire Wire Line
	3050 5650 2050 5650
$Comp
L Device:R R13
U 1 1 5AEEC72A
P 2250 5900
F 0 "R13" V 2043 5900 50  0000 C CNN
F 1 "10K" V 2134 5900 50  0000 C CNN
F 2 "Resistor_SMD:R_0603_1608Metric_Pad0.99x1.00mm_HandSolder" V 2180 5900 50  0001 C CNN
F 3 "~" H 2250 5900 50  0001 C CNN
	1    2250 5900
	0    1    1    0   
$EndComp
Wire Wire Line
	2400 5900 3100 5900
$Comp
L Device:C C13
U 1 1 5AEEC732
P 2050 6150
F 0 "C13" H 2165 6196 50  0000 L CNN
F 1 "33uF" H 2165 6105 50  0000 L CNN
F 2 "Capacitor_SMD:C_1206_3216Metric_Pad1.39x1.80mm_HandSolder" H 2088 6000 50  0001 C CNN
F 3 "~" H 2050 6150 50  0001 C CNN
F 4 "C3216X5R1E336M160AC" H 2050 6150 50  0001 C CNN "Part Number"
	1    2050 6150
	1    0    0    -1  
$EndComp
Wire Wire Line
	2050 5650 2050 5900
Connection ~ 2050 5650
Wire Wire Line
	2050 5650 1900 5650
Wire Wire Line
	2100 5900 2050 5900
Connection ~ 2050 5900
Wire Wire Line
	2050 5900 2050 6000
$Comp
L power:GND #PWR035
U 1 1 5AEEC73E
P 2050 6350
F 0 "#PWR035" H 2050 6100 50  0001 C CNN
F 1 "GND" H 2055 6177 50  0000 C CNN
F 2 "" H 2050 6350 50  0001 C CNN
F 3 "" H 2050 6350 50  0001 C CNN
	1    2050 6350
	1    0    0    -1  
$EndComp
$Comp
L power:GND #PWR038
U 1 1 5AEEC744
P 3500 6650
F 0 "#PWR038" H 3500 6400 50  0001 C CNN
F 1 "GND" H 3505 6477 50  0000 C CNN
F 2 "" H 3500 6650 50  0001 C CNN
F 3 "" H 3500 6650 50  0001 C CNN
	1    3500 6650
	1    0    0    -1  
$EndComp
$Comp
L Device:C C14
U 1 1 5AEEC74B
P 2500 6150
F 0 "C14" H 2615 6196 50  0000 L CNN
F 1 "100nF" H 2615 6105 50  0000 L CNN
F 2 "Capacitor_SMD:C_0603_1608Metric_Pad0.99x1.00mm_HandSolder" H 2538 6000 50  0001 C CNN
F 3 "~" H 2500 6150 50  0001 C CNN
F 4 "C3216X5R1E336M160AC" H 2500 6150 50  0001 C CNN "Part Number"
	1    2500 6150
	1    0    0    -1  
$EndComp
Wire Wire Line
	2050 6300 2050 6350
Wire Wire Line
	2500 6000 3100 6000
Wire Wire Line
	3100 6150 3050 6150
Wire Wire Line
	3050 6150 3050 5750
Connection ~ 3050 5750
$Comp
L power:GND #PWR036
U 1 1 5AEEC756
P 2500 6350
F 0 "#PWR036" H 2500 6100 50  0001 C CNN
F 1 "GND" H 2505 6177 50  0000 C CNN
F 2 "" H 2500 6350 50  0001 C CNN
F 3 "" H 2500 6350 50  0001 C CNN
	1    2500 6350
	1    0    0    -1  
$EndComp
Wire Wire Line
	2500 6300 2500 6350
Wire Wire Line
	3500 6550 3500 6650
Wire Wire Line
	3600 6550 3600 6650
Wire Wire Line
	3600 6650 3500 6650
Connection ~ 3500 6650
Wire Wire Line
	3000 6250 3000 6350
Wire Wire Line
	3000 6250 3100 6250
$Comp
L power:GND #PWR037
U 1 1 5AEEC763
P 3000 6350
F 0 "#PWR037" H 3000 6100 50  0001 C CNN
F 1 "GND" H 3005 6177 50  0000 C CNN
F 2 "" H 3000 6350 50  0001 C CNN
F 3 "" H 3000 6350 50  0001 C CNN
	1    3000 6350
	1    0    0    -1  
$EndComp
Text GLabel 5500 5650 2    50   Input ~ 0
5V
$Comp
L power:GND #PWR039
U 1 1 5AEEC76A
P 4000 6050
F 0 "#PWR039" H 4000 5800 50  0001 C CNN
F 1 "GND" H 4005 5877 50  0000 C CNN
F 2 "" H 4000 6050 50  0001 C CNN
F 3 "" H 4000 6050 50  0001 C CNN
	1    4000 6050
	1    0    0    -1  
$EndComp
Wire Wire Line
	3900 6050 4000 6050
$Comp
L Device:R R16
U 1 1 5AEEC771
P 4500 6150
F 0 "R16" H 4430 6104 50  0000 R CNN
F 1 "102K" H 4430 6195 50  0000 R CNN
F 2 "Resistor_SMD:R_0603_1608Metric_Pad0.99x1.00mm_HandSolder" V 4430 6150 50  0001 C CNN
F 3 "~" H 4500 6150 50  0001 C CNN
	1    4500 6150
	-1   0    0    1   
$EndComp
$Comp
L Device:R R14
U 1 1 5AEEC777
P 4150 5800
F 0 "R14" H 4080 5754 50  0000 R CNN
F 1 "523K" H 4080 5845 50  0000 R CNN
F 2 "Resistor_SMD:R_0603_1608Metric_Pad0.99x1.00mm_HandSolder" V 4080 5800 50  0001 C CNN
F 3 "~" H 4150 5800 50  0001 C CNN
	1    4150 5800
	-1   0    0    1   
$EndComp
$Comp
L Device:R R15
U 1 1 5AEEC77D
P 4150 6150
F 0 "R15" H 4080 6104 50  0000 R CNN
F 1 "100K" H 4080 6195 50  0000 R CNN
F 2 "Resistor_SMD:R_0603_1608Metric_Pad0.99x1.00mm_HandSolder" V 4080 6150 50  0001 C CNN
F 3 "~" H 4150 6150 50  0001 C CNN
	1    4150 6150
	-1   0    0    1   
$EndComp
Wire Wire Line
	3900 5750 3950 5750
Wire Wire Line
	3950 5750 3950 5650
Connection ~ 3950 5650
Wire Wire Line
	3950 5650 3900 5650
Wire Wire Line
	4150 5950 4150 6000
Wire Wire Line
	3900 5950 4150 5950
Wire Wire Line
	3950 5650 4150 5650
Connection ~ 4150 5650
Connection ~ 4150 5950
Wire Wire Line
	4150 5650 4500 5650
Wire Wire Line
	3900 6250 3900 6600
Wire Wire Line
	3900 6600 4500 6600
Wire Wire Line
	4500 6600 4500 6300
Wire Wire Line
	4500 6000 4500 5650
Connection ~ 4500 5650
Wire Wire Line
	4500 5650 4900 5650
$Comp
L power:GND #PWR040
U 1 1 5AEEC793
P 4150 6350
F 0 "#PWR040" H 4150 6100 50  0001 C CNN
F 1 "GND" H 4155 6177 50  0000 C CNN
F 2 "" H 4150 6350 50  0001 C CNN
F 3 "" H 4150 6350 50  0001 C CNN
	1    4150 6350
	1    0    0    -1  
$EndComp
Wire Wire Line
	4150 6300 4150 6350
$Comp
L Device:C C15
U 1 1 5AEEC79B
P 4900 6100
F 0 "C15" H 5015 6146 50  0000 L CNN
F 1 "10uF" H 5015 6055 50  0000 L CNN
F 2 "Capacitor_SMD:C_0603_1608Metric_Pad0.99x1.00mm_HandSolder" H 4938 5950 50  0001 C CNN
F 3 "~" H 4900 6100 50  0001 C CNN
F 4 "C1608X5R1A106K080AC" H 4900 6100 50  0001 C CNN "Part Number"
	1    4900 6100
	1    0    0    -1  
$EndComp
$Comp
L Device:C C16
U 1 1 5AEEC7A2
P 5300 6100
F 0 "C16" H 5415 6146 50  0000 L CNN
F 1 "47uF" H 5415 6055 50  0000 L CNN
F 2 "Capacitor_SMD:C_1206_3216Metric_Pad1.39x1.80mm_HandSolder" H 5338 5950 50  0001 C CNN
F 3 "~" H 5300 6100 50  0001 C CNN
F 4 "GRM31CR61A476KE15L" H 5300 6100 50  0001 C CNN "Part Number"
	1    5300 6100
	1    0    0    -1  
$EndComp
$Comp
L power:GND #PWR041
U 1 1 5AEEC7A8
P 4900 6350
F 0 "#PWR041" H 4900 6100 50  0001 C CNN
F 1 "GND" H 4905 6177 50  0000 C CNN
F 2 "" H 4900 6350 50  0001 C CNN
F 3 "" H 4900 6350 50  0001 C CNN
	1    4900 6350
	1    0    0    -1  
$EndComp
$Comp
L power:GND #PWR042
U 1 1 5AEEC7AE
P 5300 6350
F 0 "#PWR042" H 5300 6100 50  0001 C CNN
F 1 "GND" H 5305 6177 50  0000 C CNN
F 2 "" H 5300 6350 50  0001 C CNN
F 3 "" H 5300 6350 50  0001 C CNN
	1    5300 6350
	1    0    0    -1  
$EndComp
Wire Wire Line
	4900 6250 4900 6350
Wire Wire Line
	5300 6350 5300 6250
Wire Wire Line
	5300 5950 5300 5650
Connection ~ 5300 5650
Wire Wire Line
	5300 5650 5500 5650
Wire Wire Line
	4900 5950 4900 5650
Connection ~ 4900 5650
Wire Wire Line
	4900 5650 5300 5650
Text Notes 2050 5350 0    50   ~ 0
VinMin = 3.0V\nVinMax = 9.0V\nVout = 3.3V\nIout = 1.0A
Wire Notes Line
	1600 4800 1600 6950
Wire Notes Line
	1600 6950 5750 6950
Wire Notes Line
	5750 6950 5750 4800
Wire Notes Line
	5750 4800 1600 4800
$EndSCHEMATC
